{"page":1,"per_page":3,"total":12,"total_pages":4,"data":[{"id":1,"produk":"Produk Beng - Beng","first_name":"Tasty Snack Indonesia","last_name":"Murah Meriah","avatar":"http://localhost/api/img/produk1.jpeg"},
{"id":2,"produk":"Richeese","first_name":"Ahh","last_name":"Joss","avatar":"http://localhost/api/img/produk2.jpeg"},
{"id":3,"produk":"Indomie Kuah","first_name":"Rasa Mantap","last_name":"Joss","avatar":"http://localhost/api/img/produk3.jpeg"}],
"support":{"url":"https://reqres.in/#support-heading","text":"To keepReqRes free, contributions towards server costs are appreciated!"}}